black,أسود,9,"109, 257, 285, 305, 1083, 958, 963, 931, 941, 899, 721, 724, 754, 690, 696, 697, 679, 683, 615, 633, 574, 577, 578, 580, 590, 601, 555, 498, 522, 462, 465, 467, 475, 476, 392, 401, 334, 336, 376, 333, 208, 1112, 919, 882, 895, 425, 436, 17, 14, 1130, 1202"
blue,أزرق,1,"19, 23, 115, 155, 158, 179, 197, 226, 237, 268, 314, 1073, 1075, 1077, 1089, 1102, 1102, 1044, 1058, 1065, 1003, 1016, 1019, 1023, 951, 959, 975, 889, 908, 866, 867, 870, 876, 817, 818, 823, 825, 772, 778, 782, 794, 735, 747, 751, 689, 708, 710, 712, 715, 718, 661, 669, 680, 647, 579, 586, 592, 595, 599, 602, 537, 538, 553, 486, 431, 437, 442, 443, 458, 341, 366, 355, 175, 177, 1063, 1017, 916, 918, 829, 830, 770, 785, 702, 617, 571, 355, 18, 221, 263, 267, 272, 294, 319, 1100, 1035, 1015, 1028, 955, 960, 967, 923, 885, 897, 836, 874, 877, 755, 687, 706, 716, 674, 677, 627, 629, 648, 589, 609, 535, 543, 495, 499, 503, 427, 368, 149, 1117, 1118, 1136, 1137, 1141, 1144, 1146, 1150, 1152, 1153, 1154, 1156, 1163, 1176, 1193, 1194, 1195, 1201"
brown,بني,3,"96, 110, 161, 174, 200, 209, 223, 234, 258, 286, 316, 65, 225, 1080, 1084, 1091, 1041, 1047, 1048, 1061, 1068, 996, 1020, 1029, 953, 979, 988, 917, 920, 922, 950, 880, 905, 910, 834, 843, 855, 803, 804, 811, 812, 759, 765, 768, 769, 731, 748, 700, 709, 665, 667, 671, 622, 541, 554, 516, 491, 492, 429, 451, 386, 411, 352, 329, 326, 323, 306, 266, 225, 106, 58, 1082, 995, 673, 536, 542, 441, 148, 1115, 1124, 1155, 1164, 1170, 1197"
green,أخضر,78,"17, 25, 30, 79, 118, 163, 192, 206, 215, 246, 302, 303, 304, 1076, 1090, 1107, 1109, 1031, 1037, 1002, 1011, 1013, 957, 976, 985, 986, 932, 948, 947, 949, 891, 892, 901, 850, 853, 872, 878, 802, 828, 704, 705, 616, 635, 638, 585, 604, 608, 540, 556, 511, 532, 484, 393, 403, 413, 362, 332, 325, 388, 1081, 1071, 991, 982, 813, 764, 774, 787, 725, 699, 714, 652, 618, 544, 569, 468, 388, 418, 820, 1125, 1135, 1142, 1160, 1161, 1162, 1182"
grey,رمادي,29,"142, 218, 315, 1110, 999, 1009, 1026, 956, 970, 984, 886, 887, 900, 841, 845, 868, 871, 809, 720, 744, 685, 662, 663, 676, 548, 552, 567, 496, 497, 505, 526, 482, 428, 435, 440, 457, 397, 414, 339, 346, 369, 331, 743, 664, 517, 384, 742, 1127, 1172"
pink,وردي,11,"22, 100, 112, 119, 122, 135, 164, 220, 230, 235, 292, 296, 297, 317, 321, 1046, 1060, 1064, 1022, 1024, 915, 921, 927, 940, 943, 945, 884, 840, 819, 821, 824, 831, 833, 781, 792, 727, 684, 641, 649, 593, 545, 557, 510, 512, 518, 521, 523, 490, 494, 438, 415, 419, 354, 321, 21, 1092, 1095, 964, 926, 896, 912, 816, 779, 780, 783, 784, 729, 749, 758, 694, 695, 654, 668, 675, 682, 619, 628, 642, 606, 559, 561, 572, 529, 426, 343, 1123, 1123, 1151, 1169, 1183, 1192, 1198"
purple,بنفسجي,28,"123, 203, 1093, 1099, 1042, 1043, 1054, 1059, 1004, 1005, 1007, 1008, 1012, 1018, 961, 962, 965, 971, 835, 795, 798, 815, 719, 728, 730, 750, 756, 698, 707, 711, 717, 653, 656, 678, 637, 650, 596, 551, 515, 524, 478, 480, 483, 488, 489, 439, 444, 399, 410, 338, 350, 365, 372, 373, 310, 308, 307, 248, 1122, 1132, 1145, 1147, 1165, 1173, 1196"
red,أحمر,8,"5, 50, 102, 103, 105, 107, 130, 178, 191, 254, 290, 291, 311, 318, 1086, 1087, 1113, 1036, 1051, 1066, 994, 998, 1000, 1014, 1021,1025, 974, 981, 989, 906, 842, 814, 773, 776, 753, 693, 620, 623, 645, 600, 605, 558, 525, 471, 430, 448, 449, 456, 385, 391, 402, 406, 342, 348, 375, 974, 977, 978, 914, 924, 925, 939, 942, 944, 888, 890, 893, 894, 898, 913, 844, 796, 807, 761, 762, 763, 766, 732, 746, 691, 701, 651, 659, 672, 575, 576, 582, 509, 530, 452, 455, 390, 394, 408, 1116, 1121, 1140, 1148, 1158, 1174, 1175, 1177, 1178, 1181, 1204"
white,أبيض,6,"88, 188, 320, 1088, 1050, 1006, 946, 793, 613, 473, 487, 424, 447, 320, 144, 145, 147, 176, 1131, 1166, 1168, 1191, 1199"
beige,بيج,2,"111, 156, 159, 259, 264, 1074, 1078, 1103, 1103, 1052, 992, 1030, 930, 938 904, 846, 848, 863, 805, 777, 788, 722, 723, 688, 660, 681, 607, 573, 519, 460, 445, 405, 409, 412, 421, 363, 904, 1133"
yellow,أصفر,26,"77, 127, 153, 160, 186, 187, 199, 219, 231, 1079, 1085, 1072, 1034, 1053, 1067, 997, 987, 990, 928, 879, 909, 839, 797, 806, 832, 692, 666, 614, 621, 626, 636, 583, 549, 560, 566, 568, 528, 533, 493, 432, 453, 389, 396, 398, 335, 340, 349, 250, 1126, 1138, 1139, 1143, 1167"
orange,برتقالي,49,"93, 162, 168, 253, 295, 1094, 1057, 1070, 954, 936, 851, 852, 810, 775, 733, 752, 686, 658, 624, 625, 634, 646, 581, 584, 594, 598, 563, 565, 501, 520, 477, 485, 454, 337, 344, 347, 364, 374, 328, 20, 24, 134, 190, 269, 301, 1104, 1105, 1104, 1105, 1049, 983, 929, 881, 883, 760, 734, 591, 597, 670, 502, 464, 469, 470, 381, 407, 104, 1128, 1180, 1184"
multicolor,متعدد الألوان,95,"116, 114, 124, 136, 238, 293, 1101, 1056, 907, 869, 771, 657"
gold,ذهبي,13,"27, 84, 131, 140, 154, 193, 204, 1062, 1010, 972, 837, 847, 875, 827, 726, 655, 639, 640, 643, 644, 504, 508, 461, 433, 446, 400, 370, 322, 150, 1157"
rose gold,روز قولد,280,"1055, 1001, 1027, 800, 280, 1171"
silver,فضي,12,"165, 173, 233, 289, 1106, 1108, 1069, 973, 838, 767, 786, 745, 703, 534, 570, 500, 459, 463, 466, 474, 479, 481, 423, 367, 1120, 1134, 1159, 1200"
prints,مطبع,353,
strips,مخطط,,
