<svg xmlns="http://www.w3.org/2000/svg" width="45" height="31">
    <path fill="#423C39" fill-rule="evenodd" d="M42.335 26.754h-.121c-.483 2.101-2.343 3.677-4.568 3.677-2.227 0-4.087-1.576-4.569-3.677H20.261c-.482 2.101-2.342 3.677-4.567 3.677-2.229 0-4.093-1.58-4.57-3.687a2.285 2.285 0 0 1-2.17-2.286V16.046H2.677a.951.951 0 0 1-.948-.957c0-.53.424-.957.948-.957h6.277v-2.175H1.851a.953.953 0 0 1-.95-.958c0-.528.425-.958.95-.958h7.103V7.869h-4.18a.954.954 0 0 1-.949-.958c0-.53.424-.958.949-.958h4.18V.046h22.194v5.738h4.944c1.008 0 1.975.432 2.656 1.183l4.916 5.439c.608.67.942 1.541.942 2.45v9.602c0 1.267-1.019 2.296-2.271 2.296zm-7.281 0a2.804 2.804 0 0 0 2.592 1.76c1.17 0 2.172-.729 2.59-1.76.135-.33.212-.691.212-1.069a2.76 2.76 0 0 0-.143-.847c-.357-1.146-1.407-1.985-2.659-1.985-1.252 0-2.302.839-2.66 1.985a2.79 2.79 0 0 0-.142.847c0 .378.074.739.21 1.069zm-21.952 0a2.804 2.804 0 0 0 2.592 1.76c1.17 0 2.172-.729 2.591-1.76.135-.33.211-.691.211-1.069 0-.298-.058-.578-.141-.847-.359-1.146-1.408-1.985-2.661-1.985-1.251 0-2.3.839-2.659 1.985a2.822 2.822 0 0 0-.143.847c0 .378.076.739.21 1.069zM29.251 7.701V1.963H10.852v3.99h3.849c.524 0 .949.428.949.958a.945.945 0 0 1-.444.79.911.911 0 0 1-.505.168h-3.849v2.172h2.25c.525 0 .949.43.949.958 0 .53-.424.958-.949.958h-2.25v2.175h4.953c.524 0 .948.427.948.957s-.424.957-.948.957h-4.953v2.107h18.399V7.701zm13.458 7.155c0-.429-.158-.841-.445-1.157L37.348 8.26a1.699 1.699 0 0 0-1.256-.559h-4.944v12.367H10.852v4.39c0 .159.095.294.231.351.408-2.2 2.318-3.871 4.611-3.871 2.303 0 4.217 1.686 4.614 3.9h12.724c.396-2.214 2.31-3.9 4.614-3.9 2.303 0 4.217 1.686 4.613 3.9h.076c.204 0 .374-.17.374-.38v-9.602zM32.23 9.853h3.354c.518 0 1.021.217 1.377.598l3.595 3.824c.335.358.519.827.519 1.319v3.027H32.23V9.853zm1.896 6.852h5.054v-1.111l-3.598-3.825h-1.456v4.936z"/>
</svg>
